"ColumnKey","ColumnOne","ColumnTwo","ColumnThree","ColumnNew"
"Integer","1","2","3",
"Float","1.5","2.36","3.257",
"Quotes","quotes","no_quotes","no quotes",
"Empty","",,,
"RowOne","=^_^=","OneTwo","OneThree",
"RowTwo","TwoOne","TwoTwo","TwoThree",
"RowThree","ThreeOne","ThreeTwo","ThreeThree",
"RowNew",,,,"ValueNew"
